{"hide-branch-labels": true,
 "hide-main-workflow": true,
 "hide-task-name": true,
 "startSocketGravity": "[0, 30]",
 "endSocketGravity": "[0, -30]",
 "task-display": "inline-block",
 "arrow-path": "grid",
 "task_width": "120px",
 "wf_width": "100%",
 "task_height": "60px"}
